<?xml version="1.0" encoding="UTF-8"?>
<kml xmlns="http://www.opengis.net/kml/2.2">
  <Document>
    <name>TakeEatV11</name>
    <description/>
    <Style id="poly-177BC9-5000-77-normal">
      <LineStyle>
        <color>ffc97b17</color>
        <width>5</width>
      </LineStyle>
      <PolyStyle>
        <color>4dc97b17</color>
        <fill>1</fill>
        <outline>1</outline>
      </PolyStyle>
    </Style>
    <Style id="poly-177BC9-5000-77-highlight">
      <LineStyle>
        <color>ffc97b17</color>
        <width>7.5</width>
      </LineStyle>
      <PolyStyle>
        <color>4dc97b17</color>
        <fill>1</fill>
        <outline>1</outline>
      </PolyStyle>
    </Style>
    <StyleMap id="poly-177BC9-5000-77">
      <Pair>
        <key>normal</key>
        <styleUrl>#poly-177BC9-5000-77-normal</styleUrl>
      </Pair>
      <Pair>
        <key>highlight</key>
        <styleUrl>#poly-177BC9-5000-77-highlight</styleUrl>
      </Pair>
    </StyleMap>
    <Style id="poly-1E98FF-5000-102-normal">
      <LineStyle>
        <color>ffff981e</color>
        <width>5</width>
      </LineStyle>
      <PolyStyle>
        <color>66ff981e</color>
        <fill>1</fill>
        <outline>1</outline>
      </PolyStyle>
    </Style>
    <Style id="poly-1E98FF-5000-102-highlight">
      <LineStyle>
        <color>ffff981e</color>
        <width>7.5</width>
      </LineStyle>
      <PolyStyle>
        <color>66ff981e</color>
        <fill>1</fill>
        <outline>1</outline>
      </PolyStyle>
    </Style>
    <StyleMap id="poly-1E98FF-5000-102">
      <Pair>
        <key>normal</key>
        <styleUrl>#poly-1E98FF-5000-102-normal</styleUrl>
      </Pair>
      <Pair>
        <key>highlight</key>
        <styleUrl>#poly-1E98FF-5000-102-highlight</styleUrl>
      </Pair>
    </StyleMap>
    <Style id="poly-1E98FF-5000-77-normal">
      <LineStyle>
        <color>ffff981e</color>
        <width>5</width>
      </LineStyle>
      <PolyStyle>
        <color>4dff981e</color>
        <fill>1</fill>
        <outline>1</outline>
      </PolyStyle>
    </Style>
    <Style id="poly-1E98FF-5000-77-highlight">
      <LineStyle>
        <color>ffff981e</color>
        <width>7.5</width>
      </LineStyle>
      <PolyStyle>
        <color>4dff981e</color>
        <fill>1</fill>
        <outline>1</outline>
      </PolyStyle>
    </Style>
    <StyleMap id="poly-1E98FF-5000-77">
      <Pair>
        <key>normal</key>
        <styleUrl>#poly-1E98FF-5000-77-normal</styleUrl>
      </Pair>
      <Pair>
        <key>highlight</key>
        <styleUrl>#poly-1E98FF-5000-77-highlight</styleUrl>
      </Pair>
    </StyleMap>
    <Style id="poly-B51EFF-5000-128-normal">
      <LineStyle>
        <color>ffff1eb5</color>
        <width>5</width>
      </LineStyle>
      <PolyStyle>
        <color>80ff1eb5</color>
        <fill>1</fill>
        <outline>1</outline>
      </PolyStyle>
    </Style>
    <Style id="poly-B51EFF-5000-128-highlight">
      <LineStyle>
        <color>ffff1eb5</color>
        <width>7.5</width>
      </LineStyle>
      <PolyStyle>
        <color>80ff1eb5</color>
        <fill>1</fill>
        <outline>1</outline>
      </PolyStyle>
    </Style>
    <StyleMap id="poly-B51EFF-5000-128">
      <Pair>
        <key>normal</key>
        <styleUrl>#poly-B51EFF-5000-128-normal</styleUrl>
      </Pair>
      <Pair>
        <key>highlight</key>
        <styleUrl>#poly-B51EFF-5000-128-highlight</styleUrl>
      </Pair>
    </StyleMap>
    <Style id="poly-B51EFF-5000-153-normal">
      <LineStyle>
        <color>ffff1eb5</color>
        <width>5</width>
      </LineStyle>
      <PolyStyle>
        <color>99ff1eb5</color>
        <fill>1</fill>
        <outline>1</outline>
      </PolyStyle>
    </Style>
    <Style id="poly-B51EFF-5000-153-highlight">
      <LineStyle>
        <color>ffff1eb5</color>
        <width>7.5</width>
      </LineStyle>
      <PolyStyle>
        <color>99ff1eb5</color>
        <fill>1</fill>
        <outline>1</outline>
      </PolyStyle>
    </Style>
    <StyleMap id="poly-B51EFF-5000-153">
      <Pair>
        <key>normal</key>
        <styleUrl>#poly-B51EFF-5000-153-normal</styleUrl>
      </Pair>
      <Pair>
        <key>highlight</key>
        <styleUrl>#poly-B51EFF-5000-153-highlight</styleUrl>
      </Pair>
    </StyleMap>
    <Style id="poly-ED4543-5000-102-normal">
      <LineStyle>
        <color>ff4345ed</color>
        <width>5</width>
      </LineStyle>
      <PolyStyle>
        <color>664345ed</color>
        <fill>1</fill>
        <outline>1</outline>
      </PolyStyle>
    </Style>
    <Style id="poly-ED4543-5000-102-highlight">
      <LineStyle>
        <color>ff4345ed</color>
        <width>7.5</width>
      </LineStyle>
      <PolyStyle>
        <color>664345ed</color>
        <fill>1</fill>
        <outline>1</outline>
      </PolyStyle>
    </Style>
    <StyleMap id="poly-ED4543-5000-102">
      <Pair>
        <key>normal</key>
        <styleUrl>#poly-ED4543-5000-102-normal</styleUrl>
      </Pair>
      <Pair>
        <key>highlight</key>
        <styleUrl>#poly-ED4543-5000-102-highlight</styleUrl>
      </Pair>
    </StyleMap>
    <Style id="poly-FF931E-5000-102-normal">
      <LineStyle>
        <color>ff1e93ff</color>
        <width>5</width>
      </LineStyle>
      <PolyStyle>
        <color>661e93ff</color>
        <fill>1</fill>
        <outline>1</outline>
      </PolyStyle>
    </Style>
    <Style id="poly-FF931E-5000-102-highlight">
      <LineStyle>
        <color>ff1e93ff</color>
        <width>7.5</width>
      </LineStyle>
      <PolyStyle>
        <color>661e93ff</color>
        <fill>1</fill>
        <outline>1</outline>
      </PolyStyle>
    </Style>
    <StyleMap id="poly-FF931E-5000-102">
      <Pair>
        <key>normal</key>
        <styleUrl>#poly-FF931E-5000-102-normal</styleUrl>
      </Pair>
      <Pair>
        <key>highlight</key>
        <styleUrl>#poly-FF931E-5000-102-highlight</styleUrl>
      </Pair>
    </StyleMap>
    <Style id="poly-FF931E-5000-153-normal">
      <LineStyle>
        <color>ff1e93ff</color>
        <width>5</width>
      </LineStyle>
      <PolyStyle>
        <color>991e93ff</color>
        <fill>1</fill>
        <outline>1</outline>
      </PolyStyle>
    </Style>
    <Style id="poly-FF931E-5000-153-highlight">
      <LineStyle>
        <color>ff1e93ff</color>
        <width>7.5</width>
      </LineStyle>
      <PolyStyle>
        <color>991e93ff</color>
        <fill>1</fill>
        <outline>1</outline>
      </PolyStyle>
    </Style>
    <StyleMap id="poly-FF931E-5000-153">
      <Pair>
        <key>normal</key>
        <styleUrl>#poly-FF931E-5000-153-normal</styleUrl>
      </Pair>
      <Pair>
        <key>highlight</key>
        <styleUrl>#poly-FF931E-5000-153-highlight</styleUrl>
      </Pair>
    </StyleMap>
    <Style id="poly-FF931E-5000-77-normal">
      <LineStyle>
        <color>ff1e93ff</color>
        <width>5</width>
      </LineStyle>
      <PolyStyle>
        <color>4d1e93ff</color>
        <fill>1</fill>
        <outline>1</outline>
      </PolyStyle>
    </Style>
    <Style id="poly-FF931E-5000-77-highlight">
      <LineStyle>
        <color>ff1e93ff</color>
        <width>7.5</width>
      </LineStyle>
      <PolyStyle>
        <color>4d1e93ff</color>
        <fill>1</fill>
        <outline>1</outline>
      </PolyStyle>
    </Style>
    <StyleMap id="poly-FF931E-5000-77">
      <Pair>
        <key>normal</key>
        <styleUrl>#poly-FF931E-5000-77-normal</styleUrl>
      </Pair>
      <Pair>
        <key>highlight</key>
        <styleUrl>#poly-FF931E-5000-77-highlight</styleUrl>
      </Pair>
    </StyleMap>
    <Folder>
      <name>Карта TakeEat</name>
      <Placemark>
        <name/>
        <description><![CDATA[200::1000::Доставка бесплатная при заказе > 1000 р. (платная 200 р.)]]></description>
        <styleUrl>#poly-1E98FF-5000-77</styleUrl>
        <Polygon>
          <outerBoundaryIs>
            <LinearRing>
              <tessellate>1</tessellate>
              <coordinates>
                30.094733,59.713765,0
                30.105848,59.709335,0
                30.115082,59.711644,0
                30.134273,59.738052,0
                30.13158,59.746953,0
                30.155473,59.757821,0
                30.178861,59.767774,0
                30.221699,59.775641,0
                30.156402,59.799155,0
                30.134287,59.780926,0
                30.130951,59.781261,0
                30.124353,59.781552,0
                30.119162,59.78318,0
                30.1156,59.783877,0
                30.112128,59.783831,0
                30.108349,59.78351,0
                30.099249,59.781978,0
                30.092893,59.779866,0
                30.084601,59.775684,0
                30.074553,59.772,0
                30.064209,59.768428,0
                30.058157,59.766523,0
                30.053263,59.765894,0
                30.053174,59.765566,0
                30.081643,59.756888,0
                30.079938,59.747514,0
                30.077101,59.748128,0
                30.072162,59.74935,0
                30.012096,59.742284,0
                29.976058,59.727795,0
                29.974422,59.713468,0
                29.969939,59.71205,0
                29.974364,59.704879,0
                29.977758,59.703418,0
                29.983556,59.703344,0
                30.050348,59.717108,0
                30.059119,59.708956,0
                30.06274,59.705139,0
                30.094733,59.713765,0
              </coordinates>
            </LinearRing>
          </outerBoundaryIs>
        </Polygon>
      </Placemark>
      <Placemark>
        <name/>
        <description><![CDATA[100::600::Доставка бесплатная при заказе > 600 р. (платная 100 р.)]]></description>
        <styleUrl>#poly-B51EFF-5000-153</styleUrl>
        <Polygon>
          <outerBoundaryIs>
            <LinearRing>
              <tessellate>1</tessellate>
              <coordinates>
                30.080395,59.793606,0
                30.084468,59.775768,0
                30.091088,59.779252,0
                30.096388,59.781156,0
                30.099199,59.782032,0
                30.101344,59.782389,0
                30.105453,59.783108,0
                30.109348,59.783719,0
                30.112685,59.783909,0
                30.115694,59.783928,0
                30.119433,59.783211,0
                30.124374,59.781634,0
                30.129078,59.781442,0
                30.134239,59.781015,0
                30.166968,59.808869,0
                30.184122,59.823475,0
                30.125271,59.825935,0
                30.123541,59.835394,0
                30.140636,59.863005,0
                30.092058,59.865267,0
                30.038673,59.868565,0
                30.004172,59.874106,0
                29.95937,59.884824,0
                29.909249,59.888828,0
                29.873373,59.899661,0
                29.82239,59.907732,0
                29.794754,59.916835,0
                29.784283,59.929727,0
                29.742055,59.929555,0
                29.702401,59.938773,0
                29.672704,59.937136,0
                29.666685,59.92142,0
                29.660323,59.915179,0
                29.661331,59.906833,0
                29.662683,59.899347,0
                29.669528,59.891859,0
                29.676256,59.887569,0
                29.686418,59.884313,0
                29.72322,59.87573,0
                29.752127,59.869735,0
                29.766613,59.869953,0
                29.781121,59.869015,0
                29.798376,59.863588,0
                29.805654,59.857382,0
                29.822545,59.830442,0
                29.837033,59.821464,0
                29.852207,59.815597,0
                29.885258,59.812525,0
                29.906636,59.812912,0
                29.911284,59.81238,0
                29.926917,59.817037,0
                29.966695,59.80919,0
                29.97741,59.806799,0
                30.008761,59.801907,0
                30.052987,59.795456,0
                30.062576,59.794316,0
                30.067131,59.793601,0
                30.069702,59.793394,0
                30.074439,59.793306,0
                30.080395,59.793606,0
              </coordinates>
            </LinearRing>
          </outerBoundaryIs>
        </Polygon>
      </Placemark>
      <Placemark>
        <name/>
        <description><![CDATA[300::1500::Доставка бесплатная при заказе > 1500 р. (платная 300 р)]]></description>
        <styleUrl>#poly-FF931E-5000-102</styleUrl>
        <Polygon>
          <outerBoundaryIs>
            <LinearRing>
              <tessellate>1</tessellate>
              <coordinates>
                29.702063,60.025986,0
                29.621039,60.039041,0
                29.630051,60.029594,0
                29.680262,60.018769,0
                29.69966,59.998484,0
                29.734336,60.001235,0
                29.728671,59.99642,0
                29.744979,59.988165,0
                29.827033,59.957188,0
                29.787551,60.005361,0
                29.760428,60.01155,0
                29.781714,60.025986,0
                29.702063,60.025986,0
              </coordinates>
            </LinearRing>
          </outerBoundaryIs>
        </Polygon>
      </Placemark>
      <Placemark>
        <name/>
        <description><![CDATA[300::2000::Доставка бесплатная при заказе > 2000 р. (платная 300 р)]]></description>
        <styleUrl>#poly-ED4543-5000-102</styleUrl>
        <Polygon>
          <outerBoundaryIs>
            <LinearRing>
              <tessellate>1</tessellate>
              <coordinates>
                29.350485,59.976969,0
                29.384989,59.939738,0
                29.403189,59.938492,0
                29.48659,59.904828,0
                29.531383,59.865727,0
                29.588554,59.867212,0
                29.602996,59.892033,0
                29.611259,59.918214,0
                29.603751,59.919188,0
                29.545476,59.921826,0
                29.529356,59.930305,0
                29.552358,59.958638,0
                29.49056,59.960446,0
                29.447645,59.961307,0
                29.421896,59.969397,0
                29.350485,59.976969,0
              </coordinates>
            </LinearRing>
          </outerBoundaryIs>
        </Polygon>
      </Placemark>
      <Placemark>
        <name/>
        <description><![CDATA[300::2000::Доставка бесплатная при заказе > 2000 р. (платная 300 р)]]></description>
        <styleUrl>#poly-ED4543-5000-102</styleUrl>
        <Polygon>
          <outerBoundaryIs>
            <LinearRing>
              <tessellate>1</tessellate>
              <coordinates>
                29.851424,59.672267,0
                30.00961,59.680518,0
                30.031704,59.67513,0
                30.037382,59.678092,0
                30.051472,59.682833,0
                30.065917,59.682983,0
                30.073596,59.685243,0
                30.082905,59.689586,0
                30.09818,59.692605,0
                30.107362,59.694115,0
                30.106545,59.693076,0
                30.105644,59.691743,0
                30.107587,59.683402,0
                30.145199,59.692789,0
                30.150206,59.702625,0
                30.208646,59.719195,0
                30.232706,59.728252,0
                30.269322,59.758668,0
                30.253765,59.764039,0
                30.222543,59.775464,0
                30.182757,59.768249,0
                30.178566,59.767289,0
                30.132318,59.747361,0
                30.134736,59.737638,0
                30.115174,59.71159,0
                30.105906,59.709101,0
                30.095952,59.713203,0
                30.063338,59.705506,0
                30.051151,59.71665,0
                29.981828,59.703677,0
                29.974975,59.703956,0
                29.968802,59.712422,0
                29.973955,59.713533,0
                29.975675,59.727822,0
                30.011387,59.742326,0
                29.996287,59.757776,0
                29.993815,59.770716,0
                29.957915,59.770161,0
                29.919514,59.769571,0
                29.849678,59.77449,0
                29.821439,59.761882,0
                29.763159,59.714296,0
                29.777867,59.664881,0
                29.829065,59.670658,0
                29.851424,59.672267,0
              </coordinates>
            </LinearRing>
          </outerBoundaryIs>
        </Polygon>
      </Placemark>
      <Placemark>
        <name/>
        <description><![CDATA[200::1000::Доставка бесплатная при заказе > 1000 р. (платная 200 р.)]]></description>
        <styleUrl>#poly-1E98FF-5000-102</styleUrl>
        <Polygon>
          <outerBoundaryIs>
            <LinearRing>
              <tessellate>1</tessellate>
              <coordinates>
                30.15659,59.799467,0
                30.165345,59.797781,0
                30.183455,59.809391,0
                30.201565,59.812699,0
                30.226628,59.824456,0
                30.184571,59.823591,0
                30.15659,59.799467,0
              </coordinates>
            </LinearRing>
          </outerBoundaryIs>
        </Polygon>
      </Placemark>
      <Placemark>
        <name/>
        <description><![CDATA[300::1500::Доставка бесплатная при заказе > 1500 р. (платная 300 р)]]></description>
        <styleUrl>#poly-FF931E-5000-153</styleUrl>
        <Polygon>
          <outerBoundaryIs>
            <LinearRing>
              <tessellate>1</tessellate>
              <coordinates>
                29.982393,59.805562,0
                29.927321,59.81658,0
                29.9113,59.812015,0
                29.90693,59.812477,0
                29.888998,59.812161,0
                29.855831,59.813445,0
                29.849443,59.814166,0
                29.826666,59.821925,0
                29.795134,59.862246,0
                29.775591,59.86789,0
                29.762228,59.867663,0
                29.632967,59.787569,0
                29.823133,59.763162,0
                29.849707,59.774747,0
                29.919689,59.769817,0
                29.994241,59.770915,0
                29.996837,59.757754,0
                30.011696,59.74256,0
                30.071887,59.749491,0
                30.079758,59.747591,0
                30.081468,59.756846,0
                30.05277,59.765697,0
                30.053262,59.765988,0
                30.055215,59.766182,0
                30.05802,59.766583,0
                30.066291,59.769283,0
                30.074712,59.772119,0
                30.077234,59.773035,0
                30.084404,59.775686,0
                30.080346,59.793569,0
                30.073495,59.793184,0
                30.068172,59.793344,0
                30.028347,59.798708,0
                29.982393,59.805562,0
              </coordinates>
            </LinearRing>
          </outerBoundaryIs>
        </Polygon>
      </Placemark>
      <Placemark>
        <name/>
        <description><![CDATA[200::1000::Доставка бесплатная при заказе > 1000 р. (платная 200 р.)]]></description>
        <styleUrl>#poly-177BC9-5000-77</styleUrl>
        <Polygon>
          <outerBoundaryIs>
            <LinearRing>
              <tessellate>1</tessellate>
              <coordinates>
                29.628675,59.930479,0
                29.621848,59.932208,0
                29.617075,59.923473,0
                29.614234,59.92085,0
                29.606586,59.89512,0
                29.66096,59.862912,0
                29.710184,59.874026,0
                29.706364,59.878664,0
                29.674735,59.886753,0
                29.661174,59.898398,0
                29.658084,59.915296,0
                29.664951,59.922191,0
                29.668384,59.93546,0
                29.648128,59.930119,0
                29.637219,59.929785,0
                29.628675,59.930479,0
              </coordinates>
            </LinearRing>
          </outerBoundaryIs>
        </Polygon>
      </Placemark>
      <Placemark>
        <name/>
        <description><![CDATA[300::1500::Доставка бесплатная при заказе > 1500 р. (платная 300 р)]]></description>
        <styleUrl>#poly-FF931E-5000-77</styleUrl>
        <Polygon>
          <outerBoundaryIs>
            <LinearRing>
              <tessellate>1</tessellate>
              <coordinates>
                29.621643,59.932146,0
                29.620444,59.93217,0
                29.61917,59.932214,0
                29.597498,59.945436,0
                29.552866,59.957834,0
                29.532267,59.930362,0
                29.548403,59.922133,0
                29.603849,59.920861,0
                29.612432,59.918556,0
                29.613991,59.921151,0
                29.61675,59.923487,0
                29.618408,59.926521,0
                29.621643,59.932146,0
              </coordinates>
            </LinearRing>
          </outerBoundaryIs>
        </Polygon>
      </Placemark>
      <Placemark>
        <name/>
        <description><![CDATA[200::1000::Доставка бесплатная при заказе > 1000 р. (платная 200 р.)]]></description>
        <styleUrl>#poly-1E98FF-5000-102</styleUrl>
        <Polygon>
          <outerBoundaryIs>
            <LinearRing>
              <tessellate>1</tessellate>
              <coordinates>
                30.291714,59.856469,0
                30.262976,59.860403,0
                30.263178,59.863955,0
                30.21086,59.865052,0
                30.156826,59.872018,0
                30.141283,59.863248,0
                30.124031,59.835481,0
                30.125822,59.826075,0
                30.181998,59.82363,0
                30.230501,59.824369,0
                30.273329,59.83504,0
                30.280796,59.834303,0
                30.292295,59.852526,0
                30.291714,59.856469,0
              </coordinates>
            </LinearRing>
          </outerBoundaryIs>
        </Polygon>
      </Placemark>
      <Placemark>
        <name/>
        <description><![CDATA[100::600::Доставка бесплатная при заказе > 600 р. (платная 100 р.)]]></description>
        <styleUrl>#poly-B51EFF-5000-128</styleUrl>
        <Polygon>
          <outerBoundaryIs>
            <LinearRing>
              <tessellate>1</tessellate>
              <coordinates>
                30.112376,59.572631,0
                30.112831,59.569395,0
                30.116038,59.566762,0
                30.119761,59.566132,0
                30.115249,59.562628,0
                30.117199,59.561424,0
                30.121208,59.559958,0
                30.122361,59.559291,0
                30.125868,59.55639,0
                30.127229,59.556668,0
                30.129758,59.554276,0
                30.130742,59.551623,0
                30.130847,59.550034,0
                30.127005,59.548446,0
                30.127731,59.545182,0
                30.110991,59.54478,0
                30.110216,59.552048,0
                30.113471,59.555253,0
                30.11422,59.559272,0
                30.113313,59.559992,0
                30.112186,59.560821,0
                30.10419,59.564214,0
                30.097567,59.565952,0
                30.093505,59.567529,0
                30.092704,59.566492,0
                30.07737,59.574697,0
                30.077486,59.580166,0
                30.075315,59.583704,0
                30.07269,59.58477,0
                30.063202,59.576869,0
                30.058521,59.576282,0
                30.057629,59.576581,0
                30.056395,59.576489,0
                30.055127,59.577,0
                30.053021,59.576761,0
                30.053078,59.57624,0
                30.047728,59.575763,0
                30.041777,59.574589,0
                30.07076,59.565625,0
                30.071305,59.561675,0
                30.073338,59.56157,0
                30.074487,59.560577,0
                30.075356,59.559138,0
                30.077557,59.559594,0
                30.080263,59.55767,0
                30.078724,59.558047,0
                30.076676,59.557539,0
                30.07746,59.556835,0
                30.07627,59.556087,0
                30.076917,59.554576,0
                30.080786,59.555781,0
                30.082766,59.554873,0
                30.082687,59.553964,0
                30.08237,59.552989,0
                30.081394,59.553696,0
                30.079783,59.553499,0
                30.077163,59.552101,0
                30.073297,59.553315,0
                30.069169,59.551341,0
                30.070956,59.548875,0
                30.069465,59.547124,0
                30.084944,59.544392,0
                30.088346,59.544601,0
                30.098958,59.544374,0
                30.101292,59.544821,0
                30.103669,59.545486,0
                30.106791,59.547121,0
                30.10794,59.54893,0
                30.107621,59.546437,0
                30.108191,59.54543,0
                30.109276,59.544553,0
                30.111986,59.54375,0
                30.132165,59.542006,0
                30.135864,59.541918,0
                30.139692,59.542222,0
                30.143434,59.543093,0
                30.148043,59.544529,0
                30.155313,59.547665,0
                30.162848,59.550403,0
                30.161868,59.551434,0
                30.159822,59.552429,0
                30.159228,59.553123,0
                30.159407,59.553773,0
                30.160321,59.555922,0
                30.158661,59.561581,0
                30.159087,59.564395,0
                30.158999,59.565205,0
                30.15376,59.567975,0
                30.147053,59.571389,0
                30.143596,59.571162,0
                30.154777,59.587849,0
                30.187588,59.614097,0
                30.164928,59.626881,0
                30.120209,59.605697,0
                30.11961,59.602222,0
                30.129207,59.597027,0
                30.141903,59.602565,0
                30.143358,59.601593,0
                30.146873,59.601142,0
                30.149347,59.600559,0
                30.155769,59.597887,0
                30.152118,59.59389,0
                30.149839,59.593505,0
                30.150089,59.592255,0
                30.144066,59.58967,0
                30.137856,59.592071,0
                30.136447,59.589926,0
                30.127079,59.588914,0
                30.12887,59.587903,0
                30.127816,59.586489,0
                30.124188,59.588426,0
                30.123992,59.589319,0
                30.121494,59.590627,0
                30.115296,59.587759,0
                30.116738,59.586631,0
                30.11866,59.58646,0
                30.117664,59.585069,0
                30.113143,59.582667,0
                30.116633,59.580824,0
                30.112376,59.572631,0
              </coordinates>
            </LinearRing>
          </outerBoundaryIs>
        </Polygon>
      </Placemark>
      <Placemark>
        <name/>
        <description><![CDATA[200::1000::Доставка бесплатная при заказе > 1000 р. (платная 200 р.)]]></description>
        <styleUrl>#poly-1E98FF-5000-102</styleUrl>
        <Polygon>
          <outerBoundaryIs>
            <LinearRing>
              <tessellate>1</tessellate>
              <coordinates>
                30.115148,59.636898,0
                30.112521,59.635494,0
                30.110718,59.634104,0
                30.102059,59.632269,0
                30.092113,59.622352,0
                30.083254,59.610925,0
                30.075091,59.613844,0
                30.055517,59.616792,0
                30.035771,59.620002,0
                30.030171,59.618893,0
                29.948703,59.580651,0
                29.894364,59.559031,0
                29.899982,59.543509,0
                29.963896,59.522085,0
                30.002113,59.522927,0
                30.066146,59.520164,0
                30.09402,59.544474,0
                30.088887,59.544506,0
                30.08838,59.544531,0
                30.084998,59.544315,0
                30.079049,59.545375,0
                30.069201,59.547076,0
                30.070706,59.548863,0
                30.068967,59.551303,0
                30.073144,59.55333,0
                30.073326,59.553343,0
                30.077142,59.55214,0
                30.079751,59.553523,0
                30.0814,59.553725,0
                30.082334,59.553066,0
                30.082645,59.553959,0
                30.082688,59.554869,0
                30.080771,59.555738,0
                30.076877,59.554514,0
                30.076205,59.55611,0
                30.077347,59.556851,0
                30.076581,59.557551,0
                30.078702,59.558102,0
                30.080054,59.557756,0
                30.078578,59.558792,0
                30.077506,59.559425,0
                30.075236,59.558979,0
                30.074283,59.560544,0
                30.073159,59.561456,0
                30.071026,59.561562,0
                30.070608,59.565579,0
                30.041216,59.574642,0
                30.047768,59.575863,0
                30.052866,59.576322,0
                30.052822,59.576779,0
                30.055126,59.577084,0
                30.056347,59.576584,0
                30.057619,59.576671,0
                30.058476,59.576366,0
                30.063185,59.576954,0
                30.072389,59.584986,0
                30.075424,59.583974,0
                30.077925,59.580203,0
                30.077796,59.574834,0
                30.092736,59.566635,0
                30.09346,59.567601,0
                30.097534,59.566019,0
                30.104289,59.564257,0
                30.112877,59.560827,0
                30.11451,59.559331,0
                30.114039,59.555228,0
                30.110638,59.552013,0
                30.111443,59.544919,0
                30.11889,59.545242,0
                30.127384,59.545387,0
                30.126567,59.548533,0
                30.130622,59.550061,0
                30.130385,59.551154,0
                30.129494,59.554255,0
                30.127058,59.556484,0
                30.125792,59.556151,0
                30.122056,59.559142,0
                30.115101,59.562511,0
                30.119197,59.566065,0
                30.115567,59.566744,0
                30.112428,59.569235,0
                30.111931,59.572211,0
                30.116518,59.58082,0
                30.113033,59.582662,0
                30.117533,59.585038,0
                30.118363,59.586413,0
                30.116654,59.586562,0
                30.115146,59.587763,0
                30.121373,59.590686,0
                30.124452,59.589289,0
                30.124536,59.588418,0
                30.127882,59.586676,0
                30.128224,59.587894,0
                30.127021,59.589026,0
                30.136285,59.590068,0
                30.137905,59.592239,0
                30.144221,59.589769,0
                30.14985,59.592348,0
                30.149608,59.593588,0
                30.151699,59.594066,0
                30.155194,59.597894,0
                30.14912,59.600402,0
                30.145568,59.6012,0
                30.143046,59.601388,0
                30.141884,59.602141,0
                30.129432,59.596773,0
                30.118955,59.602282,0
                30.119979,59.605615,0
                30.159307,59.625104,0
                30.164497,59.627322,0
                30.188019,59.614237,0
                30.174526,59.603367,0
                30.155312,59.58777,0
                30.149329,59.578918,0
                30.144119,59.571457,0
                30.147234,59.571507,0
                30.159104,59.565198,0
                30.158746,59.561597,0
                30.159762,59.558228,0
                30.16007,59.557121,0
                30.16042,59.555925,0
                30.159741,59.554447,0
                30.159319,59.553143,0
                30.160002,59.552425,0
                30.161853,59.551488,0
                30.162927,59.55041,0
                30.158754,59.548866,0
                30.142637,59.542528,0
                30.132541,59.541476,0
                30.109725,59.543827,0
                30.107026,59.547008,0
                30.10383,59.545242,0
                30.098413,59.544011,0
                30.094589,59.544267,0
                30.088643,59.539165,0
                30.066646,59.520109,0
                30.085914,59.519169,0
                30.109762,59.517511,0
                30.143554,59.514282,0
                30.167047,59.51236,0
                30.161872,59.529454,0
                30.17917,59.535716,0
                30.194593,59.537777,0
                30.196814,59.546388,0
                30.210507,59.545524,0
                30.215098,59.551899,0
                30.215495,59.562294,0
                30.213633,59.567722,0
                30.198552,59.573061,0
                30.191874,59.578603,0
                30.185883,59.579965,0
                30.181625,59.585562,0
                30.180061,59.596839,0
                30.181588,59.601501,0
                30.192442,59.613618,0
                30.211725,59.631996,0
                30.197841,59.635278,0
                30.18213,59.64006,0
                30.162584,59.636206,0
                30.137545,59.622961,0
                30.127465,59.619466,0
                30.121714,59.637876,0
                30.115148,59.636898,0
              </coordinates>
            </LinearRing>
          </outerBoundaryIs>
        </Polygon>
      </Placemark>
      <Placemark>
        <name/>
        <description><![CDATA[300::2000::Доставка бесплатная при заказе > 2000 р. (платная 300 р)]]></description>
        <styleUrl>#poly-ED4543-5000-102</styleUrl>
        <Polygon>
          <outerBoundaryIs>
            <LinearRing>
              <tessellate>1</tessellate>
              <coordinates>
                29.589992,59.761783,0
                29.537885,59.758975,0
                29.539425,59.739053,0
                29.601391,59.728829,0
                29.689615,59.729182,0
                29.7169,59.729047,0
                29.762038,59.715301,0
                29.821841,59.763058,0
                29.632485,59.787443,0
                29.589992,59.761783,0
              </coordinates>
            </LinearRing>
          </outerBoundaryIs>
        </Polygon>
      </Placemark>
    </Folder>
  </Document>
</kml>
